25126766_12_9_2012_12_17_5
*******************************************
Hotel ID : 74
Hotel Name : Hotel NH Du Grand Sablon
Booking ID : 167
*******************************************
Fax Number : 25126766
User ID : 785
User Name : Pranayesh
Email : test_nhdugrandsablon@nh-hotels.com
Address : tesing address
Postal Code : 123456
Country : Belgium
Contact Number : 98279999
Card Type : American Express
Card Name : Testing by Pranayesh
Card Number : 378282246310005
Cvc Number : 1234
Expiry Date : 01/2015
